[
  {
    "pid": "1709900604646",
    "hn": "12222/99",
    "periodStart": "null",
    "periodEnd": "null",
    "policyHolderId": "53",
    "policyHolderName": "เงินสด",
    "creditNo": 99999999,
    "createdDateTime": "2020-01-31 12:33:10"
  },
  {
    "pid": "1709900604646",
    "hn": "12222/99",
    "periodStart": "null",
    "periodEnd": "null",
    "policyHolderId": "52",
    "policyHolderName": "กรมบัญชีกลาง",
    "creditNo": 99999998,
    "createdDateTime": "2020-01-31 12:33:10"
  },
  {
    "pid": "5504974823970",
    "hn": "13333/99",
    "periodStart": "null",
    "periodEnd": "null",
    "policyHolderId": "53",
    "policyHolderName": "เงินสด",
    "creditNo": 99999997,
    "createdDateTime": "2020-01-31 12:33:10"
  },
  {
    "pid": "3903279890434",
    "hn": "14444/99",
    "periodStart": "null",
    "periodEnd": "null",
    "policyHolderId": "999",
    "policyHolderName": "ผู้พิการ",
    "creditNo": 9999996,
    "createdDateTime": "2020-01-31 12:33:10"
  },
  {
    "pid": "3100700628308",
    "hn": "30768/57",
    "periodStart": null,
    "periodEnd": null,
    "policyHolderId": "105",
    "policyHolderName": "ผู้พิการ (กทม)",
    "creditNo": 16471587,
    "createdDateTime": "2020-02-03 05:02:28"
  }
]
